R Interview
…
`summarise()` has grouped output by 'region'. You can override using the
`.groups` argument.

# Output the summary stats
summary_stats

# A tibble: 218 × 7
# Groups:   region [7]
   region               date     N  Mean    SD   Min    Max
   <chr>               <dbl> <int> <dbl> <dbl> <dbl>  <dbl>
 1 East Asia & Pacific  1990    22 4913. 8497.  582. 32846.
 2 East Asia & Pacific  1991    22 5105. 8691.  579. 33870.
 3 East Asia & Pacific  1992    22 5291. 8667.  597. 34049.
 4 East Asia & Pacific  1993    22 5483. 8576.  635. 33783.
 5 East Asia & Pacific  1994    22 5740. 8619.  669. 34054.
 6 East Asia & Pacific  1995    22 6037. 8796.  709. 34868.
 7 East Asia & Pacific  1996    22 6340. 9011.  746. 35879.
 8 East Asia & Pacific  1997    22 6538. 9045.  782. 36145.
 9 East Asia & Pacific  1998    22 6449. 8823.  817. 36099.
10 East Asia & Pacific  1999    22 6635. 8836.  875. 37476.
# ℹ 208 more rows
…
Warning: Expected 2 pieces. Additional pieces discarded in 4 rows [9, 10, 11,
12].

# View the resulting long-form data frame
aggregate_stats_long

# A tibble: 2,616 × 6
   region               date     N variable stat      value
   <chr>               <dbl> <int> <chr>    <chr>     <dbl>
 1 East Asia & Pacific  1990    22 lifeex   mean     68.2  
 2 East Asia & Pacific  1990    22 lifeex   sd        3.99 
 3 East Asia & Pacific  1990    22 lifeex   min      53.7  
 4 East Asia & Pacific  1990    22 lifeex   max      78.8  
 5 East Asia & Pacific  1990    22 gdp      mean   4913.   
 6 East Asia & Pacific  1990    22 gdp      sd     8497.   
 7 East Asia & Pacific  1990    22 gdp      min     582.   
 8 East Asia & Pacific  1990    22 gdp      max   32846.   
 9 East Asia & Pacific  1990    22 pov      intl      0.590
10 East Asia & Pacific  1990    22 pov      intl      0.254
# ℹ 2,606 more rows
…
